company name,email,first name,last name,city,state
ratoncse24,admin@ratoncse24.com,Admin,MP,Hyderabad,Telangana
ratoncse24,hr@ratoncse24.com,HR,MP,Hyderabad,Telangana
ratoncse24,contactus@ratoncse24.com,Contact US,MP,Hyderabad,Telangana
